LoadData — LoadData • localcovid19now
…
    See also

    tidy_Data()

    Examples

LoadData("LoadUS")
#> LoadUS 
#> Simple feature collection with 3216 features and 5 fields
#> Geometry type: MULTIPOLYGON
#> Dimension:     XY
#> Bounding box:  xmin: -178.8706 ymin: 17.91523 xmax: 179.7739 ymax: 71.29585
#> Geodetic CRS:  WGS 84
#> # A tibble: 3,216 × 6
#>    DateReport geoid          RegionN…¹ Country    pInf                  geometry
#>  * <chr>      <chr>          <chr>     <chr>     <dbl>        <MULTIPOLYGON [°]>
#>  1 2023-01-15 USA840_AL_1001 Autauga,… United… 0.00456 (((-86.90674 32.53698, -…
#>  2 2023-01-15 USA840_AL_1003 Baldwin,… United… 0.00327 (((-87.92538 30.64889, -…
#>  3 2023-01-15 USA840_AL_1005 Barbour,… United… 0.00466 (((-85.66363 31.78236, -…
#>  4 2023-01-15 USA840_AL_1007 Bibb, Al… United… 0.00520 (((-87.4212 32.87451, -8…
#>  5 2023-01-15 USA840_AL_1009 Blount, … United… 0.00403 (((-86.95366 33.8153, -8…
#>  6 2023-01-15 USA840_AL_1011 Bullock,… United… 0.00375 (((-85.99916 32.25054, -…
#>  7 2023-01-15 USA840_AL_1013 Butler, … United… 0.00488 (((-86.90894 31.96167, -…
#>  8 2023-01-15 USA840_AL_1015 Calhoun,… United… 0.00462 (((-86.04399 33.7636, -8…
#>  9 2023-01-15 USA840_AL_1017 Chambers… United… 0.00503 (((-85.59315 32.72853, -…
#> 10 2023-01-15 USA840_AL_1019 Cherokee… United… 0.00365 (((-85.57679 34.48444, -…
#> # … with 3,206 more rows, and abbreviated variable name ¹​RegionName
LoadData("LoadUS", dropNAall = TRUE)
#> LoadUS 
#> Simple feature collection with 3144 features and 5 fields
#> Geometry type: MULTIPOLYGON
#> Dimension:     XY
#> Bounding box:  xmin: -178.8706 ymin: 17.91523 xmax: 179.7739 ymax: 71.29585
#> Geodetic CRS:  WGS 84
#> # A tibble: 3,144 × 6
#>    DateReport geoid          RegionN…¹ Country    pInf                  geometry
#>    <chr>      <chr>          <chr>     <chr>     <dbl>        <MULTIPOLYGON [°]>
#>  1 2023-01-15 USA840_AL_1001 Autauga,… United… 0.00456 (((-86.90674 32.53698, -…
#>  2 2023-01-15 USA840_AL_1003 Baldwin,… United… 0.00327 (((-87.92538 30.64889, -…
#>  3 2023-01-15 USA840_AL_1005 Barbour,… United… 0.00466 (((-85.66363 31.78236, -…
#>  4 2023-01-15 USA840_AL_1007 Bibb, Al… United… 0.00520 (((-87.4212 32.87451, -8…
#>  5 2023-01-15 USA840_AL_1009 Blount, … United… 0.00403 (((-86.95366 33.8153, -8…
#>  6 2023-01-15 USA840_AL_1011 Bullock,… United… 0.00375 (((-85.99916 32.25054, -…
#>  7 2023-01-15 USA840_AL_1013 Butler, … United… 0.00488 (((-86.90894 31.96167, -…
#>  8 2023-01-15 USA840_AL_1015 Calhoun,… United… 0.00462 (((-86.04399 33.7636, -8…
#>  9 2023-01-15 USA840_AL_1017 Chambers… United… 0.00503 (((-85.59315 32.72853, -…
#> 10 2023-01-15 USA840_AL_1019 Cherokee… United… 0.00365 (((-85.57679 34.48444, -…
#> # … with 3,134 more rows, and abbreviated variable name ¹​RegionName
…
#> 5  0.0008287895 MULTIPOLYGON (((175.8982 -3...
#> 6  0.0006621188 MULTIPOLYGON (((176.6242 -3...
#> 7  0.0005054653 MULTIPOLYGON (((178.0066 -3...
#> 8  0.0002821503 MULTIPOLYGON (((177.9118 -3...
#> 9  0.0000917319 MULTIPOLYGON (((174.5904 -3...
#> 10 0.0001921062 MULTIPOLYGON (((177.799 -38...
LoadData(c("LoadUS","LoadMalaysia"))
#> LoadUS 
#> LoadMalaysia 
#> Simple feature collection with 3232 features and 5 fields
#> Geometry type: MULTIPOLYGON
#> Dimension:     XY
#> Bounding box:  xmin: -178.8706 ymin: 0.8623942 xmax: 179.7739 ymax: 71.29585
#> Geodetic CRS:  WGS 84
#> # A tibble: 3,232 × 6
#>    DateReport geoid          RegionN…¹ Country    pInf                  geometry
#>  * <chr>      <chr>          <chr>     <chr>     <dbl>        <MULTIPOLYGON [°]>
#>  1 2023-01-15 USA840_AL_1001 Autauga,… United… 0.00456 (((-86.90674 32.53698, -…
#>  2 2023-01-15 USA840_AL_1003 Baldwin,… United… 0.00327 (((-87.92538 30.64889, -…
#>  3 2023-01-15 USA840_AL_1005 Barbour,… United… 0.00466 (((-85.66363 31.78236, -…
#>  4 2023-01-15 USA840_AL_1007 Bibb, Al… United… 0.00520 (((-87.4212 32.87451, -8…
#>  5 2023-01-15 USA840_AL_1009 Blount, … United… 0.00403 (((-86.95366 33.8153, -8…
#>  6 2023-01-15 USA840_AL_1011 Bullock,… United… 0.00375 (((-85.99916 32.25054, -…
#>  7 2023-01-15 USA840_AL_1013 Butler, … United… 0.00488 (((-86.90894 31.96167, -…
#>  8 2023-01-15 USA840_AL_1015 Calhoun,… United… 0.00462 (((-86.04399 33.7636, -8…
#>  9 2023-01-15 USA840_AL_1017 Chambers… United… 0.00503 (((-85.59315 32.72853, -…
#> 10 2023-01-15 USA840_AL_1019 Cherokee… United… 0.00365 (((-85.57679 34.48444, -…
#> # … with 3,222 more rows, and abbreviated variable name ¹​RegionName
…
